ICU report
…
#A table showing the change in heart rate, temperature, and respiratory rate between the last two measurements for all patients
changing <- new_data %>%
  group_by(PatientID) %>%
  arrange(PatientID, ICULOS) %>%
  slice_tail(n = 2) %>%
  mutate(across(c(HR, Temp, Resp), list(change = ~ . - lag(.)))) %>%
  filter(!is.na(HR_change) | !is.na(Temp_change) | !is.na(Resp_change)) %>%
  select(PatientID, HR_change, Temp_change, Resp_change) %>%
  pivot_longer(cols = c(HR_change, Temp_change, Resp_change), names_to = "variable", values_to = "change") %>%
  mutate(change_direction = case_when(change > 0 ~ "increased",
                                      change < 0 ~ "decreased",
                                      TRUE ~ "same"))
changing

# A tibble: 102 × 4
# Groups:   PatientID [34]
   PatientID variable    change change_direction
   <chr>     <chr>        <dbl> <chr>           
 1 000121    HR_change        0 same            
 2 000121    Temp_change     NA same            
 3 000121    Resp_change      0 same            
 4 000316    HR_change        1 increased       
 5 000316    Temp_change     NA same            
 6 000316    Resp_change     NA same            
 7 000514    HR_change        2 increased       
 8 000514    Temp_change     NA same            
 9 000514    Resp_change      1 increased       
10 000965    HR_change       -2 decreased       
# ℹ 92 more rows
